ex1_v2/dump.vcd
$date
	Fri Aug 28 10:32:15 2020
$end
$version
	ModelSim Version 10.4a
$end
$timescale
	10ps
$end

$scope module test $end
$var parameter 72 ! INPUT_DATA $end
$var parameter 80 " EXPECT_DATA $end
$var parameter 32 # period $end
$var reg 1 $ clk $end
$var reg 1 % reset $end
$var reg 1 & nt $end
$var reg 3 ' xi [2:0] $end
$var reg 3 ( yi [2:0] $end
$var wire 1 ) xo [2] $end
$var wire 1 * xo [1] $end
$var wire 1 + xo [0] $end
$var wire 1 , yo [2] $end
$var wire 1 - yo [1] $end
$var wire 1 . yo [0] $end
$var wire 1 / po $end
$var wire 1 0 busy $end
$var integer 32 1 i $end
$var integer 32 2 j $end
$var integer 32 3 k $end
$var integer 32 4 l $end
$var integer 32 5 out_f $end
$var integer 32 6 err $end
$var integer 32 7 pattern_num $end
$var integer 32 8 total_num $end
$var integer 32 9 total_cycle_num $end
$var integer 32 : a $end
$var integer 32 ; b $end
$var integer 32 < c $end
$var integer 32 = d $end
$var reg 6 > data_tmp_expect [5:0] $end
$var reg 6 ? data_tmp_i1 [5:0] $end
$var reg 6 @ data_tmp_i2 [5:0] $end
$var reg 6 A data_tmp_i3 [5:0] $end

$scope module top $end
$var wire 1 B clk $end
$var wire 1 C reset $end
$var wire 1 D nt $end
$var wire 1 E xi [2] $end
$var wire 1 F xi [1] $end
$var wire 1 G xi [0] $end
$var wire 1 H yi [2] $end
$var wire 1 I yi [1] $end
$var wire 1 J yi [0] $end
$var reg 1 K busy $end
$var reg 1 L po $end
$var reg 3 M xo [2:0] $end
$var reg 3 N yo [2:0] $end
$var reg 2 O recive_cnt [1:0] $end
$var reg 3 P x_index [2:0] $end
$var reg 3 Q y_index [2:0] $end
$var reg 1 R next_x $end
$var reg 1 S next_y $end
$var reg 3 T temp_line [2:0] $end
$var reg 3 U temp_locat [2:0] $end
$var reg 1 V x_add $end
$var reg 1 W y_add $end
$var wire 1 X in $end
$var wire 1 Y compare_loaction1 [9] $end
$var wire 1 Z compare_loaction1 [8] $end
$var wire 1 [ compare_loaction1 [7] $end
$var wire 1 \ compare_loaction1 [6] $end
$var wire 1 ] compare_loaction1 [5] $end
$var wire 1 ^ compare_loaction1 [4] $end
$var wire 1 _ compare_loaction1 [3] $end
$var wire 1 ` compare_loaction1 [2] $end
$var wire 1 a compare_loaction1 [1] $end
$var wire 1 b compare_loaction1 [0] $end
$var wire 1 c compare_loaction2 [9] $end
$var wire 1 d compare_loaction2 [8] $end
$var wire 1 e compare_loaction2 [7] $end
$var wire 1 f compare_loaction2 [6] $end
$var wire 1 g compare_loaction2 [5] $end
$var wire 1 h compare_loaction2 [4] $end
$var wire 1 i compare_loaction2 [3] $end
$var wire 1 j compare_loaction2 [2] $end
$var wire 1 k compare_loaction2 [1] $end
$var wire 1 l compare_loaction2 [0] $end
$var wire 1 m x_in $end
$var wire 1 n y_in $end
$var wire 1 o loc_in $end
$var wire 1 p y_plus $end
$upscope $end
$upscope $end
$enddefinitions $end
#0
$dumpvars
1$
0%
0&
bz '
bz (
bx >
bx ?
bx @
bx A
xK
0L
bx M
bx N
b0 O
bx P
bx Q
xR
xS
bx T
bx U
xV
xW
b1111101000 #
b11010010110111001110000011101010111010000101110011001000110000101110100 !
b1100101011110000111000001100101011000110111010000101110011001000110000101110100 "
b0 1
b0 2
b0 3
b0 4
b10 5
b0 6
b1 7
b0 8
bx 9
bx :
bx ;
bx <
bx =
x+
x*
x)
x.
x-
x,
0/
x0
xX
xb
xa
x`
x_
x^
x]
x\
x[
xZ
xY
xl
xk
xj
xi
xh
xg
xf
xe
xd
xc
xm
xn
xo
zp
zJ
zI
zH
zG
zF
zE
0D
0C
1B
$end
#5000
0$
0B
1%
1C
0K
b0 P
0W
b0 Q
b0 M
b0 N
0m
0n
00
0.
0-
0,
0+
0*
0)
0b
0a
0`
0_
0^
0]
0\
0[
0Z
0Y
0l
0k
0j
0i
0h
0g
0f
0e
0d
0c
0X
1o
#10000
1$
1B
b0 9
#14999
0%
b11 3
0C
#15000
0$
0B
1&
1D
#18000
b1001 ?
b1 '
b1 (
1J
0I
0H
1G
0F
0E
#20000
1$
1B
b1 9
b1 O
b111 P
b111 Q
b111 M
b111 N
1m
1n
1.
1-
1,
1+
1*
1)
1X
#22000
bz '
bz (
zJ
zI
zH
zG
zF
zE
#25000
0$
0B
0&
0D
#28000
b100001 @
b100 '
b1 (
1J
0I
0H
0G
0F
1E
#30000
1$
1B
b10 9
b10 O
1K
b1 P
b1 Q
b1 M
b1 N
10
0-
0,
0*
0)
1a
1`
1_
1]
1\
1[
1Z
1Y
#32000
bz '
bz (
zJ
zI
zH
zG
zF
zE
#35000
0$
0B
#38000
b1111 A
b1 '
b111 (
1J
1I
1H
1G
0F
0E
#40000
1$
1B
b11 9
b11 O
b10 P
1L
0a
0_
1^
1/
#42000
bz '
bz (
b11 1
zJ
zI
zH
zG
zF
zE
#45000
0$
0B
b0 3
#50000
1$
1B
b1001 >
b1 4
b100 9
b11 P
b10 M
0+
1*
1a
0`
1_
#55000
0$
0B
#60000
1$
1B
b10001 >
b10 4
b101 9
b100 P
b11 M
1+
0a
0_
0^
0]
0\
0[
0Z
0Y
#65000
0$
0B
#70000
1$
1B
b11001 >
b11 4
b110 9
b101 P
b100 M
0m
0+
0*
1)
1a
1`
0X
0o
#75000
0$
0B
#80000
1$
1B
b100001 >
b100 4
b111 9
b1 P
b10 Q
0L
1m
1l
1j
1i
1h
1g
1f
1e
1d
1c
1_
1]
1\
1[
1Z
1Y
0/
1o
1X
#85000
0$
0B
#90000
1$
1B
b1000 9
b10 P
b1 M
b10 N
1L
0.
1-
1+
0)
0a
0_
1^
1/
#95000
0$
0B
#100000
1$
1B
b1010 >
b101 4
b1001 9
b11 P
b10 M
0+
1*
1a
0`
1_
#105000
0$
0B
#110000
1$
1B
b10010 >
b110 4
b1010 9
b100 P
b11 M
1+
0a
0_
0^
0]
0\
0[
0Z
0Y
0o
0X
#115000
0$
0B
#120000
1$
1B
b11010 >
b111 4
b1011 9
b1 P
b11 Q
0L
0l
1k
0j
1a
1`
1_
1]
1\
1[
1Z
1Y
0/
1o
1X
#125000
0$
0B
#130000
1$
1B
b1100 9
b10 P
b1 M
b11 N
1L
1.
0*
0a
0_
1^
1/
#135000
0$
0B
#140000
1$
1B
b1011 >
b1000 4
b1101 9
b11 P
b10 M
0+
1*
1a
0`
1_
#145000
0$
0B
#150000
1$
1B
b10011 >
b1001 4
b1110 9
b100 P
b11 M
1+
0a
0_
0^
0]
0\
0[
0Z
0Y
0o
0X
#155000
0$
0B
#160000
1$
1B
b11011 >
b1010 4
b1111 9
b1 P
b100 Q
0L
1l
1j
0i
1a
1`
1_
1]
1\
1[
1Z
1Y
0/
1o
1X
#165000
0$
0B
#170000
1$
1B
b10000 9
b10 P
b1 M
b100 N
1L
0.
0-
1,
0*
0a
0_
1^
1/
#175000
0$
0B
#180000
1$
1B
b1100 >
b1011 4
b10001 9
b11 P
b10 M
0+
1*
1a
0`
1_
0o
0X
#185000
0$
0B
#190000
1$
1B
b10100 >
b1100 4
b10010 9
b1 P
b101 Q
0L
0l
0k
1`
0^
0/
1o
1X
#195000
0$
0B
#200000
1$
1B
b10011 9
b10 P
b1 M
b101 N
1L
1.
1+
0*
0a
0_
1^
1/
#205000
0$
0B
#210000
1$
1B
b1101 >
b1101 4
b10100 9
b11 P
b10 M
0+
1*
1a
0`
1_
0o
0X
#215000
0$
0B
#220000
1$
1B
b10101 >
b1110 4
b10101 9
b1 P
b110 Q
0L
1l
0j
1`
0^
0/
1o
1X
#225000
0$
0B
#230000
1$
1B
b10110 9
b10 P
b1 M
b110 N
1L
0.
1-
1+
0*
0a
0_
1^
1/
0o
0X
#235000
0$
0B
#240000
1$
1B
b1110 >
b1111 4
b10111 9
b1 P
b111 Q
0L
0l
1k
1j
1i
0h
1a
1_
0^
0/
1o
1X
#245000
0$
0B
#250000
1$
1B
b11000 9
0K
b10 P
b111 N
1L
00
1.
0a
0_
1^
1/
0o
0X
#255000
0$
0B
b11 3
#260000
1$
1B
b1111 >
b10000 4
b11001 9
b0 O
b1 P
b1 Q
b1 N
0L
0-
0,
0k
0j
0i
0g
0f
0e
0d
0c
1a
1_
0^
0/
1o
1X
#265000
0$
0B
1&
1D
#268000
b1 '
b1 (
1J
0I
0H
1G
0F
0E
#270000
1$
1B
b11010 9
b1 O
#272000
bz '
bz (
zJ
zI
zH
zG
zF
zE
#275000
0$
0B
0&
0D
#278000
b111001 @
b111 '
b1 (
1J
0I
0H
1G
1F
1E
#280000
1$
1B
b11011 9
b10 O
1K
0a
1^
0]
10
#282000
bz '
bz (
zJ
zI
zH
zG
zF
zE
#285000
0$
0B
#288000
b1011 A
b1 '
b11 (
1J
1I
0H
1G
0F
0E
#290000
1$
1B
b11100 9
b11 O
b10 P
1L
1a
0_
1]
1/
#292000
bz '
bz (
b110 1
zJ
zI
zH
zG
zF
zE
#295000
0$
0B
#300000
1$
1B
b1001 >
b10001 4
b11101 9
b11 P
b10 M
0+
1*
0a
0`
1_
#305000
0$
0B
#310000
1$
1B
b10001 >
b10010 4
b11110 9
b100 P
b11 M
1+
1a
#315000
0$
0B
#320000
1$
1B
b11001 >
b10011 4
b11111 9
b101 P
b100 M
0+
0*
1)
0a
1`
#325000
0$
0B
#330000
1$
1B
b100001 >
b10100 4
b100000 9
b110 P
b101 M
1+
1a
#335000
0$
0B
#340000
1$
1B
b101001 >
b10101 4
b100001 9
1W
b111 P
b110 M
0+
1*
0a
0`
0_
0^
0]
0\
0[
0Z
0Y
#345000
0$
0B
#350000
1$
1B
b110001 >
b10110 4
b100010 9
b1 P
0W
b10 Q
b111 M
1+
1k
1i
1h
1g
1f
1e
1d
1c
1`
1^
1]
1\
1[
1Z
1Y
#355000
0$
0B
#360000
1$
1B
b111001 >
b10111 4
b100011 9
b10 P
b1 M
b10 N
0.
1-
0*
0)
1a
#365000
0$
0B
#370000
1$
1B
b1010 >
b11000 4
b100100 9
b11 P
b10 M
0+
1*
0a
0`
1_
#375000
0$
0B
#380000
1$
1B
b10010 >
b11001 4
b100101 9
b100 P
b11 M
1+
1a
#385000
0$
0B
#390000
1$
1B
b11010 >
b11010 4
b100110 9
b101 P
b100 M
0+
0*
1)
0a
1`
0o
0X
#395000
0$
0B
#400000
1$
1B
b100010 >
b11011 4
b100111 9
b1 P
b11 Q
0L
0k
1j
0i
0_
0/
1o
1X
#405000
0$
0B
#410000
1$
1B
b101000 9
0K
b10 P
b1 M
b11 N
1L
00
1.
1+
0)
1a
1/
0o
0X
#415000
0$
0B
#420000
1$
1B
b1011 >
b11100 4
b1001110001000000 8
